데이터 과학 – 금융(Finance)
…
yearweek: “week” (W)

Date: “day” (D)

POSIXct: “hour” (h), “minute” (m), “second” (s), “millisecond” (us), “microsecond” (ms)

nanotime: “nanosecond” (ns)

weather_tsbl <- as_tsibble(weather, key = id(origin),
                                    index = time_hour)

weather_tsbl

# A tsibble: 26,115 x 5 [1h] <America/New_York>
# Key:       origin [3]
   origin time_hour            temp humid precip
   <chr>  <dttm>              <dbl> <dbl>  <dbl>
 1 EWR    2013-01-01 01:00:00  39.0  59.4      0
 2 EWR    2013-01-01 02:00:00  39.0  61.6      0
 3 EWR    2013-01-01 03:00:00  39.0  64.4      0
 4 EWR    2013-01-01 04:00:00  39.9  62.2      0
 5 EWR    2013-01-01 05:00:00  39.0  64.4      0
 6 EWR    2013-01-01 06:00:00  37.9  67.2      0
 7 EWR    2013-01-01 07:00:00  39.0  64.4      0
 8 EWR    2013-01-01 08:00:00  39.9  62.2      0
 9 EWR    2013-01-01 09:00:00  39.9  62.2      0
10 EWR    2013-01-01 10:00:00  41    59.6      0
# ... with 26,105 more rows

2.2 tsibble 연산작업

dplyr 동사에 친숙한 경우, group_by() + summarize() 콤보 연산은 tsibble 팩키지 index_by() + summarize() 콤보연산에 대응된다. 예를 들어 현재 시간대별로 나눠진 데이터를 일자별로 요약할 경우 날짜/시간 → 날짜로 변환하는데 as_date() 함수를 사용하고, index_by() 함수로 날짜별로 최대, 최소 온도를 구해서 새로운 자료형을 만들 수 있다.

weather_tsbl %>%
  group_by(origin) %>%
  index_by(date = as_date(time_hour)) %>% 
  summarise(
    temp_high = max(temp, na.rm = TRUE),
    temp_mean = mean(temp, na.rm = TRUE),
    temp_low = min(temp, na.rm = TRUE)
  )

# A tsibble: 1,092 x 5 [1D]
# Key:       origin [3]
   origin date       temp_high temp_mean temp_low
   <chr>  <date>         <dbl>     <dbl>    <dbl>
 1 EWR    2013-01-01      41        36.8     28.0
 2 EWR    2013-01-02      34.0      28.7     24.1
 3 EWR    2013-01-03      34.0      29.6     26.1
 4 EWR    2013-01-04      39.9      34.3     28.9
 5 EWR    2013-01-05      44.1      36.6     32  
 6 EWR    2013-01-06      48.0      39.9     33.1
 7 EWR    2013-01-07      46.9      40.3     32  
 8 EWR    2013-01-08      48.9      38.6     28.9
 9 EWR    2013-01-09      50        42.1     34.0
10 EWR    2013-01-10      50        43.6     39.0
# ... with 1,082 more rows
…
flights <- nycflights13::flights %>%
  mutate(sched_dep_datetime = 
    lubridate::make_datetime(year, month, day, hour, minute, tz = "America/New_York"))

carrier, flight를 키값으로 삼아 앞서 생성한 sched_dep_datetime를 시계열 index로 삼는 다. regular = FALSE 인자를 명시적으로 선언해서 불규칙 시계열임을 확실히 한다. 이를 통해서 336,776 x 20 [!]으로부터 [!]을 통해 불규칙 시계열임을 확인할 수 있게된다.

flights_tsbl <- flights %>%
  as_tsibble(
    key = id(carrier, flight), 
    index = sched_dep_datetime, 
    regular = FALSE
  )
flights_tsbl

# A tsibble: 336,776 x 20 [!] <America/New_York>
# Key:       carrier, flight [5,725]
    year month   day dep_time sched_dep_time dep_delay arr_time
   <int> <int> <int>    <int>          <int>     <dbl>    <int>
 1  2013    11     3     1531           1540        -9     1653
 2  2013    11     4     1539           1540        -1     1712
 3  2013    11     5     1548           1540         8     1708
 4  2013    11     6     1535           1540        -5     1657
 5  2013    11     7     1549           1540         9     1733
 6  2013    11     8     1539           1540        -1     1706
 7  2013    11     9     1535           1540        -5     1714
 8  2013    11    10     1538           1540        -2     1718
 9  2013    11    11     1527           1540       -13     1710
10  2013    11    12     1535           1540        -5     1709
# ... with 336,766 more rows, and 13 more variables: sched_arr_time <int>,
#   arr_delay <dbl>, carrier <chr>, flight <int>, tailnum <chr>,
#   origin <chr>, dest <chr>, air_time <dbl>, distance <dbl>, hour <dbl>,
#   minute <dbl>, time_hour <dttm>, sched_dep_datetime <dttm>
…
