데이터 시각화 - 인터랙티브
…
kospi50_df %>% write_rds("data/kospi50_df.rds")

2 종목별 기초 통계

무명함수를 사용해서 기본적인 통계량을 각 종목별로 작업을 수행할 수 있다.

kospi50_df  <- read_rds("data/kospi50_df.rds")

kospi50_df %>% 
  arrange(desc(`시가총액`)) %>% 
  mutate(close_max_price = map_dbl(stock_data, function(x) max(x$close)),
         close_min_price = map_dbl(stock_data, function(x) min(x$close)))

# A tibble: 50 x 7
   stock_code 종목코드 종목명 시가총액 stock_data close_max_price
   <chr>      <chr>    <chr>     <dbl> <list>               <dbl>
 1 005930.KS  005930   삼성전자…  2.42e14 <S3: xts>            57220
 2 000660.KS  000660   SK하이닉…  4.74e13 <S3: xts>            95300
 3 005935.KS  005935   삼성전자우…  2.72e13 <S3: xts>            46700
 4 068270.KS  068270   셀트리온…  2.72e13 <S3: xts>           366176
 5 005380.KS  005380   현대차  2.63e13 <S3: xts>           184000
 6 207940.KS  207940   삼성바이오…  2.62e13 <S3: xts>           584000
 7 051910.KS  051910   LG화학  2.46e13 <S3: xts>           441500
 8 005490.KS  005490   POSCO   2.23e13 <S3: xts>           395000
 9 015760.KS  015760   한국전력…  2.23e13 <S3: xts>            63000
10 035420.KS  035420   NAVER   2.16e13 <S3: xts>           192000
# … with 40 more rows, and 1 more variable: close_min_price <dbl>
…
