데이터 과학 – 금융(Finance)
…
krx_df %>% 
  DT::datatable() %>% 
  DT::formatRound(4:6, digits=0)

우선주 시가총액 계산시 반영 검토.

krx_df %>% 
  filter(str_detect(`종목명`, "[0-9]?우[B]?$" ))

# A tibble: 118 x 6
   거래소 종목코드 종목명             현재가 상장주식수 시가총억원
   <chr>  <chr>    <chr>               <dbl>      <dbl>      <dbl>
 1 코스피 000075   삼양홀딩스우        46950     304058      143. 
 2 코스피 000087   하이트진로2우B      14200    1130138      160. 
 3 코스피 000105   유한양행우         207500     236188      490. 
 4 코스피 000145   하이트진로홀딩스우   8110     470810       38.2
 5 코스피 000155   두산우              72800    4411074     3211. 
 6 코스피 000157   두산2우B            73400     985685      723. 
 7 코스피 000215   대림산업우          37200    3800000     1414. 
 8 코스피 000225   유유제약1우          6900    1133465       78.2
 9 코스피 000227   유유제약2우B        17400     164080       28.5
10 코스피 000325   노루홀딩스우        17650     185250       32.7
# ... with 108 more rows
…
