데이터 과학 – 금융(Finance)
…
2.2 주식

주식관련하여 주가 정보 및 재무제표, 기술분석지표가 차례로 제공되고 있다.

Google Finance stopped providing data in March, 2018. You could try setting src = “yahoo” instead.

SK 이노베이션 주식은 앞서 확인한 096770.KS으로 “2010-01-01” 시점부터 현재까지 주식시세 데이터를 가져온다. 재무제표는 tq_get() 함수에 인자로 get = "financials", 기술분석지표(Key Ratios & Key Stats)는 get = "key.ratios" 명령어로 가져올 수 있다.

## 1.3. 주식 데이터
ski_prices  <- tq_get("096770.KS", get = "stock.prices", from = "2010-01-01")
ski_prices 

# A tibble: 2,087 x 7
   date         open   high    low  close  volume adjusted
   <date>      <dbl>  <dbl>  <dbl>  <dbl>   <dbl>    <dbl>
 1 2010-01-04 118000 118500 116500 117000  598112   96376.
 2 2010-01-05 119000 123000 118500 121500 1714028  100083.
 3 2010-01-06 123000 124000 121000 122000  882393  100495.
 4 2010-01-07 124000 124500 121000 121500  853069  100083.
 5 2010-01-08 122500 123000 118000 122500  827690  100907.
 6 2010-01-11 123500 126000 123000 123500  729640  101730.
 7 2010-01-12 124000 124000 121000 123500  489140  101730.
 8 2010-01-13 121500 122500 117000 118000 1086518   97200.
 9 2010-01-14 118500 120500 117500 119000  878582   98024.
10 2010-01-15 119500 120500 117000 118500  571581   97612.
# ... with 2,077 more rows
…
2.3 원자재

원자재 가격은 WTI 원유가격은 quandl을 통해 가져올 수 있고, 자료제공 기간의 한계가 있기 때문에 FRED를 통해 데이터를 가져오는 것도 가능하다.

# 2. 원자재 -----

# quandl_api_key(quandl_apikey)
# quandl_search(query = "Oil", database_code = "NSE", per_page = 3)

# 3. 경제데이터 -----
## 3.1. WTI 원유가격
wti_price_usd <- tq_get("DCOILWTICO", get = "economic.data")
wti_price_usd 

# A tibble: 2,725 x 2
   date       price
   <date>     <dbl>
 1 2008-01-01  NA  
 2 2008-01-02  99.6
 3 2008-01-03  99.2
 4 2008-01-04  97.9
 5 2008-01-07  95.1
 6 2008-01-08  96.4
 7 2008-01-09  95.6
 8 2008-01-10  93.9
 9 2008-01-11  92.7
10 2008-01-14  94.2
# ... with 2,715 more rows
…
2.6 거시경제 지표

대한민국 실업률도 FRED 웹사이트에 검색하게 되면 LRHUTTTTKRA156N 확인된다. 대한민국 현시점(2018-06-18) 이후 12개월 예측 실업률에 대한 자세한 사항은 데이터 과학 – 금융(Finance), 실업률 예측 - tidyquant을 참조한다.

# 1. 데이터 -----
unemp_tbl <- tq_get("LRUN64TTKRM156N", 
                            get  = "economic.data", 
                            from = "2000-01-01",
                            to   = Sys.Date())
(unemp_tbl <- unemp_tbl %>% 
  rename(실업률 = price,
            연월 = date))

# A tibble: 220 x 2
   연월       실업률
   <date>      <dbl>
 1 2000-01-01   5.93
 2 2000-02-01   5.87
 3 2000-03-01   5.29
 4 2000-04-01   4.66
 5 2000-05-01   4.29
 6 2000-06-01   4.06
 7 2000-07-01   4.14
 8 2000-08-01   4.26
 9 2000-09-01   4.22
10 2000-10-01   3.90
# ... with 210 more rows
…
